{
  "project_info": {
    "project_number": "940328366945",
    "firebase_url": "https://tracker-dk.firebaseio.com",
    "project_id": "tracker-dk",
    "storage_bucket": "tracker-dk.appspot.com"
  },
  "client": [
    {
      "client_info": {
        "mobilesdk_app_id": "1:940328366945:android:e41c6a42823a4a0a",
        "android_client_info": {
          "package_name": "rf.androidovshchik.routesheet"
        }
      },
      "oauth_client": [
        {
          "client_id": "940328366945-3mkdsaii918va8s63is3l0qf7177i9g7.apps.googleusercontent.com",
          "client_type": 1,
          "android_info": {
            "package_name": "rf.androidovshchik.routesheet",
            "certificate_hash": "b2ba751b089ba72d7a37d6035391386a5cbc0600"
          }
        },
        {
          "client_id": "940328366945-tc92srlph5b050kmksajtkjols8e1eao.apps.googleusercontent.com",
          "client_type": 3
        }
      ],
      "api_key": [
        {
          "current_key": "AIzaSyDdfszCo5GSBHOk1i1KRhjvXYhV_cqW_Yk"
        }
      ],
      "services": {
        "analytics_service": {
          "status": 1
        },
        "appinvite_service": {
          "status": 2,
          "other_platform_oauth_client": [
            {
              "client_id": "940328366945-tc92srlph5b050kmksajtkjols8e1eao.apps.googleusercontent.com",
              "client_type": 3
            }
          ]
        },
        "ads_service": {
          "status": 2
        }
      }
    }
  ],
  "configuration_version": "1"
}